bidict==0.21.2
click==7.1.2
dnspython==1.16.0
Flask==1.1.2
Flask-PyMongo==2.3.0
Flask-SocketIO==5.0.1
gevent==21.1.2
greenlet==1.0.0
itsdangerous==1.1.0
Jinja2==2.11.2
MarkupSafe==1.1.1
pymongo==3.11.2
python-dateutil==2.8.1
python-engineio==4.0.0
python-http-client==3.3.1
python-socketio==5.0.4
sendgrid==6.4.8
six==1.15.0
starkbank-ecdsa==1.1.0
uWSGI==2.0.19.1
Werkzeug==1.0.1
zope.event==4.5.0
zope.interface==5.2.0
